(;GM[1]FF[4]AP[Drago:4.23]CA[UTF-8]SZ[9]C[First one is simple, capture the white stone with the next move.
Since diagonal intersections do not count, this stone has only 1 liberty left.]LB[ef:2]
(;B[ef]TE[1]C[Yup. But that was easy. Try the next one.])
(;B[df]C[No. To be fair after this move white would not be able to escape, but I am asking you to CAPTURE with a single move.])
(;B[ff]C[No. To be fair after this move white would not be able to escape, but I am asking you to CAPTURE with a single move.])
(;B[eg]C[Yeah, yeah, very clever. Stop joking and capture with ONE move.])
(;B[aa]TE[1]))
